{
    "home": {
        "title": "Vue.js",
        "subtitle": "MVVM made simple",
        "description1": "Vue.js is a library for building interactive web interfaces.",
        "description2": "It provides efficient MVVM data bindings with a simple and flexible API."
    },

    "about": {
        "title": "Class: Vue",
        "description": "The Vue Class is the core of vue.js. It is a constructor that allows you to create ViewModel instances. Creating a ViewModel instance is straightforward:"
    }
}